%YAML 1.1
%TAG !u! tag:unity3d.com,2011:
--- !u!13 &1
InputManager:
  m_ObjectHideFlags: 0
  serializedVersion: 2
  m_Axes:
  - serializedVersion: 3
    m_Name: Horizontal
    descriptiveName: 
    descriptiveNegativeName: 
    negativeButton: a
    positiveButton: d
    altNegativeButton: left
    altPositiveButton: right
    gravity: 0
    dead: 0
    sensitivity: 1
    snap: 0
    invert: 0
    type: 0
    axis: 0
    joyNum: 0
  - serializedVersion: 3
    m_Name: Vertical
    descriptiveName: 
    descriptiveNegativeName: 
    negativeButton: s
    positiveButton: w
    altNegativeButton: down
    altPositiveButton: up
    gravity: 0
    dead: 0
    sensitivity: 0.5
    snap: 0
    invert: 0
    type: 0
    axis: 1
    joyNum: 0
  - serializedVersion: 3
    m_Name: Jump
    descriptiveName: 
    descriptiveNegativeName: 
    negativeButton: 
    positiveButton: space
    altNegativeButton: 
    altPositiveButton: 
    gravity: 0
    dead: 0
    sensitivity: 1
    snap: 0
    invert: 0
    type: 0
    axis: 0
    joyNum: 0
